・初回起動→初回起動シーケンス

・2回目以降起動→初期化→読み込み 11
    ・現在の時刻を聞く→（SNTPから取得？）→表示 21
    　↑時計見せて？
    
    ・スケジュールを聞く 31
        ・TODOを聞く 32
        ・通知を聞く 33
        ・締め切りを聞く 34
        ・スケジュールを聞く 36
            ・いつのでしょうか？35


    ・スケジュールを記憶してもらう 41
            ・入力画面 42
                ・キーワード 43
                ・時間 44
                ・（自動的にカテゴリーが決まる）
    ・スケジュールを記憶してもらう 41
        ・開始時間は入力しますか？42
            はい 43
                入力画面 44
                    はい 45
                    いいえ 46
            いいえ47
                入力画面 48
                    はい 49
                    いいえ 50


    ・お天気を聞く→APIから取得→表示 61

    TODO例）高度情報技術者試験のお勉強する
    通知例）25時からのシンデレラガールズ劇場見る
    締め切り例）プロセ締め切り20日朝9時まで
    スケジュール例）毎週木曜日9時～14時40分は情報表現入門